Example - Scottish Lip Cancer
…
.small[

```r
lip_cancer
```

```
## Simple feature collection with 56 features and 7 fields
## geometry type:  MULTIPOLYGON
## dimension:      XY
## bbox:           xmin: -8.621389 ymin: 54.62722 xmax: -0.7530556 ymax: 60.84444
## epsg (SRID):    4267
## proj4string:    +proj=longlat +ellps=clrk66 +nadgrids=@conus,@alaska,@ntv2_0.gsb,@ntv1_can.dat +no_defs
## # A tibble: 56 x 8
##    District    id                  geometry Observed Expected   AFF Latitude
##    <chr>    <dbl>        <MULTIPOLYGON [°]>    <int>    <dbl> <int>    <dbl>
##  1 Sutherl…    12 (((-4.506667 58.56777, -…        5      1.8    16     58.1
##  2 Nairn       13 (((-3.79893 57.61441, -3…        3      1.1    10     57.5
##  3 Inverne…    19 (((-5.103908 57.4972, -4…        9      5.5     7     57.2
##  4 Banff-B…     2 (((-2.822545 57.70421, -…       39      8.7    16     57.6
##  5 Bedenoch    17 (((-4.63596 56.83384, -4…        2      1.1    10     57.1
##  6 Kincard…    16 (((-2.074866 57.15196, -…        9      4.6    16     57  
##  7 Angus       21 (((-2.33191 56.79082, -2…       16     10.5     7     56.8
##  8 Dundee      50 (((-2.691373 56.50128, -…        6     19.6     1     56.4
##  9 NE Fife     15 (((-3.2167 56.35458, -3.…       17      7.8     7     56.3
## 10 Kirkcal…    25 (((-2.915809 56.2049, -2…       19     15.5     1     56.2
## # … with 46 more rows, and 1 more variable: Longitude <dbl>
```
…
